^E:\MATERI KULIAH\ALGORITMA DAN PEMROGRAMAN\C++\SAND COLLECTOR\SAND_COLLECTOR\SAND_COLLECTOR\DEBUG\SAND_COLLECTOR.EXE.EMBED.MANIFEST.RES|E:\MATERI KULIAH\ALGORITMA DAN PEMROGRAMAN\C++\SAND COLLECTOR\SAND_COLLECTOR\SAND_COLLECTOR\DEBUG\SAND_COLLECTOR.OBJ
/ERRORREPORT:PROMPT /OUT:"E:\Materi Kuliah\Algoritma dan Pemrograman\C++\Sand Collector\sand_collector\Debug\sand_collector.exe" /INCREMENTAL /NOLOGO "sfml-graphics-d.lib" "sfml-window-d.lib" "sfml-system-d.lib" kernel32.lib user32.lib gdi32.lib winspool.lib comdlg32.lib advapi32.lib shell32.lib ole32.lib oleaut32.lib uuid.lib odbc32.lib odbccp32.lib /MANIFEST /ManifestFile:"Debug\sand_collector.exe.intermediate.manifest" /MANIFESTUAC:"level='asInvoker' uiAccess='false'" /DEBUG /PDB:"E:\Materi Kuliah\Algoritma dan Pemrograman\C++\Sand Collector\sand_collector\Debug\sand_collector.pdb" /SUBSYSTEM:CONSOLE /TLBID:1 /DYNAMICBASE /NXCOMPAT /IMPLIB:"E:\Materi Kuliah\Algoritma dan Pemrograman\C++\Sand Collector\sand_collector\Debug\sand_collector.lib" /MACHINE:X86 Debug\sand_collector.exe.embed.manifest.res
Debug\sand_collector.obj
^D:\GITLAB\SAND COLLECTOR GAME SFML\SAND_COLLECTOR\DEBUG\SAND_COLLECTOR.EXE.EMBED.MANIFEST.RES|D:\GITLAB\SAND COLLECTOR GAME SFML\SAND_COLLECTOR\DEBUG\SAND_COLLECTOR.OBJ
/ERRORREPORT:PROMPT /OUT:"D:\GitLab\Sand Collector Game SFML\Debug\sand_collector.exe" /INCREMENTAL /NOLOGO "sfml-graphics-d.lib" "sfml-window-d.lib" "sfml-system-d.lib" kernel32.lib user32.lib gdi32.lib winspool.lib comdlg32.lib advapi32.lib shell32.lib ole32.lib oleaut32.lib uuid.lib odbc32.lib odbccp32.lib /MANIFEST /ManifestFile:"Debug\sand_collector.exe.intermediate.manifest" /MANIFESTUAC:"level='asInvoker' uiAccess='false'" /DEBUG /PDB:"D:\GitLab\Sand Collector Game SFML\Debug\sand_collector.pdb" /SUBSYSTEM:CONSOLE /TLBID:1 /DYNAMICBASE /NXCOMPAT /IMPLIB:"D:\GitLab\Sand Collector Game SFML\Debug\sand_collector.lib" /MACHINE:X86 Debug\sand_collector.exe.embed.manifest.res
Debug\sand_collector.obj
