^E:\MATERI KULIAH\ALGORITMA DAN PEMROGRAMAN\C++\SAND COLLECTOR\SAND_COLLECTOR\SAND_COLLECTOR\DEBUG\SAND_COLLECTOR.EXE.INTERMEDIATE.MANIFEST
/nologo /verbose /out:"Debug\sand_collector.exe.embed.manifest" /manifest Debug\sand_collector.exe.intermediate.manifest
^D:\GITLAB\SAND COLLECTOR GAME SFML\SAND_COLLECTOR\DEBUG\SAND_COLLECTOR.EXE.INTERMEDIATE.MANIFEST
/nologo /verbose /out:"Debug\sand_collector.exe.embed.manifest" /manifest Debug\sand_collector.exe.intermediate.manifest
