^E:\MATERI KULIAH\ALGORITMA DAN PEMROGRAMAN\C++\SAND COLLECTOR\SAND_COLLECTOR\SAND_COLLECTOR\DEBUG\SAND_COLLECTOR_MANIFEST.RC
E:\MATERI KULIAH\ALGORITMA DAN PEMROGRAMAN\C++\SAND COLLECTOR\SAND_COLLECTOR\SAND_COLLECTOR\DEBUG\SAND_COLLECTOR.EXE.EMBED.MANIFEST.RES
^D:\GITLAB\SAND COLLECTOR GAME SFML\SAND_COLLECTOR\DEBUG\SAND_COLLECTOR_MANIFEST.RC
D:\GITLAB\SAND COLLECTOR GAME SFML\SAND_COLLECTOR\DEBUG\SAND_COLLECTOR.EXE.EMBED.MANIFEST.RES
