^D:\GITLAB\SAND COLLECTOR GAME SFML\SAND_COLLECTOR\RELEASE\SAND_COLLECTOR.OBJ
D:\GITLAB\SAND COLLECTOR GAME SFML\RELEASE\SAND_COLLECTOR.EXE
D:\GITLAB\SAND COLLECTOR GAME SFML\SAND_COLLECTOR\RELEASE\SAND_COLLECTOR.EXE.INTERMEDIATE.MANIFEST
D:\GITLAB\SAND COLLECTOR GAME SFML\RELEASE\SAND_COLLECTOR.PDB
