^E:\MATERI KULIAH\ALGORITMA DAN PEMROGRAMAN\C++\SAND COLLECTOR\SAND_COLLECTOR\SAND_COLLECTOR\RELEASE\SAND_COLLECTOR.OBJ
E:\MATERI KULIAH\ALGORITMA DAN PEMROGRAMAN\C++\SAND COLLECTOR\SAND_COLLECTOR\RELEASE\SAND_COLLECTOR.EXE
E:\MATERI KULIAH\ALGORITMA DAN PEMROGRAMAN\C++\SAND COLLECTOR\SAND_COLLECTOR\RELEASE\SAND_COLLECTOR.PDB
